[
  {
    "line": 1,
    "elements": [
      {
        "start_timestamp": "2021-08-23T06:43:58.521Z",
        "line": 3,
        "name": "Verification of Reset button",
        "description": "",
        "id": "reset-functionality-on-login-page-of-application;verification-of-reset-button",
        "type": "scenario",
        "keyword": "Scenario",
        "steps": [
          {
            "result": {
              "duration": 25342000000,
              "status": "passed"
            },
            "line": 4,
            "name": "Open the Chrome and launch the application",
            "match": {
              "location": "cucumber.stepdefinitions.LoginSteps.open_the_chrome_and_launch_the_application()"
            },
            "keyword": "Given "
          },
          {
            "result": {
              "duration": 7104000000,
              "status": "passed"
            },
            "line": 5,
            "name": "Enter the Username and Password",
            "match": {
              "location": "cucumber.stepdefinitions.LoginSteps.enter_the_username_and_password()"
            },
            "keyword": "When "
          },
          {
            "result": {
              "duration": 2714000000,
              "status": "passed"
            },
            "line": 6,
            "name": "Reset the credential",
            "match": {
              "location": "cucumber.stepdefinitions.LoginSteps.reset_the_credential()"
            },
            "keyword": "Then "
          }
        ]
      },
      {
        "start_timestamp": "2021-08-23T06:44:33.963Z",
        "line": 17,
        "name": "Verification of login button",
        "description": "",
        "id": "reset-functionality-on-login-page-of-application;verification-of-login-button;;2",
        "type": "scenario",
        "keyword": "Scenario Outline",
        "steps": [
          {
            "result": {
              "duration": 13144000000,
              "status": "passed"
            },
            "line": 12,
            "name": "Open the Chrome and launch the application",
            "match": {
              "location": "cucumber.stepdefinitions.LoginSteps.open_the_chrome_and_launch_the_application()"
            },
            "keyword": "Given "
          },
          {
            "result": {
              "duration": 3800000000,
              "status": "passed"
            },
            "line": 13,
            "name": "Enter the \"narayan@yopmail.com\" and \"Aeiou616\"",
            "match": {
              "arguments": [
                {
                  "val": "narayan@yopmail.com",
                  "offset": 11
                },
                {
                  "val": "Aeiou616",
                  "offset": 37
                }
              ],
              "location": "cucumber.stepdefinitions.LoginSteps.enter_the_Username_and_Password(java.lang.String,java.lang.String)"
            },
            "keyword": "When "
          },
          {
            "result": {
              "duration": 2925000000,
              "status": "passed"
            },
            "line": 14,
            "name": "Reset the credential",
            "match": {
              "location": "cucumber.stepdefinitions.LoginSteps.reset_the_credential()"
            },
            "keyword": "Then "
          }
        ]
      },
      {
        "start_timestamp": "2021-08-23T06:44:53.865Z",
        "line": 18,
        "name": "Verification of login button",
        "description": "",
        "id": "reset-functionality-on-login-page-of-application;verification-of-login-button;;3",
        "type": "scenario",
        "keyword": "Scenario Outline",
        "steps": [
          {
            "result": {
              "duration": 7342000000,
              "status": "passed"
            },
            "line": 12,
            "name": "Open the Chrome and launch the application",
            "match": {
              "location": "cucumber.stepdefinitions.LoginSteps.open_the_chrome_and_launch_the_application()"
            },
            "keyword": "Given "
          },
          {
            "result": {
              "duration": 4377000000,
              "status": "passed"
            },
            "line": 13,
            "name": "Enter the \"ryan@yopmail.com\" and \"Asdf1234\"",
            "match": {
              "arguments": [
                {
                  "val": "ryan@yopmail.com",
                  "offset": 11
                },
                {
                  "val": "Asdf1234",
                  "offset": 34
                }
              ],
              "location": "cucumber.stepdefinitions.LoginSteps.enter_the_Username_and_Password(java.lang.String,java.lang.String)"
            },
            "keyword": "When "
          },
          {
            "result": {
              "duration": 1633000000,
              "status": "passed"
            },
            "line": 14,
            "name": "Reset the credential",
            "match": {
              "location": "cucumber.stepdefinitions.LoginSteps.reset_the_credential()"
            },
            "keyword": "Then "
          }
        ]
      }
    ],
    "name": "Reset functionality on login page of Application",
    "description": "",
    "id": "reset-functionality-on-login-page-of-application",
    "keyword": "Feature",
    "uri": "file:src/test/java/cucumber/feature/LogIn.feature",
    "tags": []
  }
]